%YAML 1.1
%TAG !u! tag:unity3d.com,2011:
--- !u!221 &22100000
AnimatorOverrideController:
  m_ObjectHideFlags: 0
  m_PrefabParentObject: {fileID: 0}
  m_PrefabInternal: {fileID: 0}
  m_Name: Enemy Strong
  m_Controller: {fileID: 9100000, guid: 68d914a7ea476e440be669800223dd3e, type: 2}
  m_Clips:
  - m_OriginalClip: {fileID: 7400000, guid: 5d352685ce8015144acd9da105c58bf6, type: 2}
    m_OverrideClip: {fileID: 7400000, guid: a60f6aa495b04e44097411b1feb22867, type: 2}
  - m_OriginalClip: {fileID: 7400000, guid: 07d06400d63bce94bb5d245d3adb548b, type: 2}
    m_OverrideClip: {fileID: 7400000, guid: e38de26124c6c0a4cba32be36ae58783, type: 2}
